%YAML 1.1
%TAG !u! tag:unity3d.com,2011:
--- !u!74 &7400000
AnimationClip:
  m_ObjectHideFlags: 0
  m_CorrespondingSourceObject: {fileID: 0}
  m_PrefabInstance: {fileID: 0}
  m_PrefabAsset: {fileID: 0}
  m_Name: Idle
  serializedVersion: 6
  m_Legacy: 0
  m_Compressed: 0
  m_UseHighQualityCurve: 1
  m_RotationCurves: []
  m_CompressedRotationCurves: []
  m_EulerCurves: []
  m_PositionCurves: []
  m_ScaleCurves: []
  m_FloatCurves: []
  m_PPtrCurves:
  - curve:
    - time: 0
      value: {fileID: 21300000, guid: e39e08dcbfc807846b0bbff754485eea, type: 3}
    - time: 0.083333336
      value: {fileID: 21300000, guid: 6a2ec19dc56cc7c4fa4e0ebe2eccc9da, type: 3}
    - time: 0.16666667
      value: {fileID: 21300000, guid: 3ddca31efcbffdd45a58e070d93d3f0d, type: 3}
    - time: 0.25
      value: {fileID: 21300000, guid: f69550c510cf34c499c64752b59050ca, type: 3}
    - time: 0.33333334
      value: {fileID: 21300000, guid: 60e822f05c97a9c4497f3578aa482393, type: 3}
    - time: 0.41666666
      value: {fileID: 21300000, guid: 0bba694532fea2243b3bd66d2503882c, type: 3}
    - time: 0.5
      value: {fileID: 21300000, guid: 660fcc61e9becfe47ac27cb979eb2237, type: 3}
    - time: 0.5833333
      value: {fileID: 21300000, guid: 007e9c85a13510448b308c939b8e4ec7, type: 3}
    - time: 0.6666667
      value: {fileID: 21300000, guid: a3fcdd8a9423bf649918c299e0c0ecd5, type: 3}
    - time: 0.75
      value: {fileID: 21300000, guid: 6df5be10ed21c4a4c9e2ada81a8d8c3b, type: 3}
    attribute: m_Sprite
    path: 
    classID: 212
    script: {fileID: 0}
  m_SampleRate: 12
  m_WrapMode: 0
  m_Bounds:
    m_Center: {x: 0, y: 0, z: 0}
    m_Extent: {x: 0, y: 0, z: 0}
  m_ClipBindingConstant:
    genericBindings:
    - serializedVersion: 2
      path: 0
      attribute: 0
      script: {fileID: 0}
      typeID: 212
      customType: 23
      isPPtrCurve: 1
    pptrCurveMapping:
    - {fileID: 21300000, guid: e39e08dcbfc807846b0bbff754485eea, type: 3}
    - {fileID: 21300000, guid: 6a2ec19dc56cc7c4fa4e0ebe2eccc9da, type: 3}
    - {fileID: 21300000, guid: 3ddca31efcbffdd45a58e070d93d3f0d, type: 3}
    - {fileID: 21300000, guid: f69550c510cf34c499c64752b59050ca, type: 3}
    - {fileID: 21300000, guid: 60e822f05c97a9c4497f3578aa482393, type: 3}
    - {fileID: 21300000, guid: 0bba694532fea2243b3bd66d2503882c, type: 3}
    - {fileID: 21300000, guid: 660fcc61e9becfe47ac27cb979eb2237, type: 3}
    - {fileID: 21300000, guid: 007e9c85a13510448b308c939b8e4ec7, type: 3}
    - {fileID: 21300000, guid: a3fcdd8a9423bf649918c299e0c0ecd5, type: 3}
    - {fileID: 21300000, guid: 6df5be10ed21c4a4c9e2ada81a8d8c3b, type: 3}
  m_AnimationClipSettings:
    serializedVersion: 2
    m_AdditiveReferencePoseClip: {fileID: 0}
    m_AdditiveReferencePoseTime: 0
    m_StartTime: 0
    m_StopTime: 0.8333333
    m_OrientationOffsetY: 0
    m_Level: 0
    m_CycleOffset: 0
    m_HasAdditiveReferencePose: 0
    m_LoopTime: 1
    m_LoopBlend: 0
    m_LoopBlendOrientation: 0
    m_LoopBlendPositionY: 0
    m_LoopBlendPositionXZ: 0
    m_KeepOriginalOrientation: 0
    m_KeepOriginalPositionY: 1
    m_KeepOriginalPositionXZ: 0
    m_HeightFromFeet: 0
    m_Mirror: 0
  m_EditorCurves: []
  m_EulerEditorCurves: []
  m_HasGenericRootTransform: 0
  m_HasMotionFloatCurves: 0
  m_Events: []
